<?xml version="1.0" standalone="no"?>
<!DOCTYPE svg PUBLIC "-//W3C//DTD SVG 1.1//EN" "http://www.w3.org/Graphics/SVG/1.1/DTD/svg11.dtd" >
<svg xmlns="http://www.w3.org/2000/svg">
<metadata>Generated by IcoMoon</metadata>
<defs>
<font id="icomoon" horiz-adv-x="1024">
<font-face units-per-em="1024" ascent="960" descent="-64" />
<missing-glyph horiz-adv-x="1024" />
<glyph unicode="&#x20;" horiz-adv-x="512" d="" />
<glyph unicode="&#xe901;" glyph-name="bitcoin" horiz-adv-x="760" d="M666.857 585.143c7.429-76-24.571-121.714-74.857-147.429 83.429-20 136-69.714 125.714-181.143-13.143-138.857-116-176-263.429-184v-145.714h-88v143.429c-22.286 0-45.714 0-69.714 0.571v-144h-88v145.714c-20.571 0-41.143 0.571-62.286 0.571h-114.286l17.714 104.571c64.571-1.143 63.429 0 63.429 0 24.571 0 31.429 17.714 33.143 29.143v229.714h9.143c-3.429 0.571-6.857 0.571-9.143 0.571v164c-3.429 18.286-14.857 38.857-50.857 38.857 0 0 1.143 1.143-63.429 0v93.714l121.143-0.571c17.714 0 36.571 0 55.429 0.571v144h88v-141.143c23.429 0.571 46.857 1.143 69.714 1.143v140h88v-144c113.143-9.714 202.857-44.571 212.571-148.571zM544 273.714c0 113.143-186.286 96.571-245.714 96.571v-193.143c59.429 0 245.714-12.571 245.714 96.571zM503.429 545.714c0 103.429-155.429 88-205.143 88v-175.429c49.714 0 205.143-11.429 205.143 87.429z" />
<glyph unicode="&#xe902;" glyph-name="gitlab" d="M59.429 547.428l452.571-580-496 360c-13.714 10.286-19.429 28-14.286 44l57.714 176zM323.429 547.428h377.143l-188.571-580zM210.286 897.143l113.143-349.714h-264l113.143 349.714c6.286 17.714 31.429 17.714 37.714 0zM964.571 547.428l57.714-176c5.143-16-0.571-33.714-14.286-44l-496-360 452.571 580zM964.571 547.428h-264l113.143 349.714c6.286 17.714 31.429 17.714 37.714 0z" />
<glyph unicode="&#xe903;" glyph-name="lock" d="M128-32v512h96v160c0 141.376 114.592 256 256 256h32c141.376 0 256-114.624 256-256v-160h96v-512h-736zM471.808 230.816l-23.808-166.816h96l-23.84 166.816c23.328 9.536 39.84 32.416 39.84 59.2 0 35.328-28.672 64-64 64-35.36 0-64-28.672-64-64 0-26.784 16.48-49.664 39.808-59.2zM672 624c0 97.216-78.816 176-176 176-97.216 0-176-78.784-176-176v-144h352v144z" />
<glyph unicode="&#xe904;" glyph-name="Mastodon_logo" d="M512 960c-282.77 0-512-229.23-512-512s229.23-512 512-512c282.77 0 512 229.23 512 512s-229.23 512-512 512zM509.44 682.394h109.814c-21.053-14.818-27.894-58.434-27.894-80.821v-206.996c0-44.775-36.047-80.822-81.92-80.822s-81.92 36.047-81.92 80.822v206.996c0 44.774 36.047 80.821 81.92 80.821zM226.816 632.32c45.873 0 81.92-36.047 81.92-80.822v-206.995c0-22.388 6.84-66.003 27.894-80.822h-109.814c-45.873 0-81.92 36.047-81.92 80.822v206.995c0 44.775 36.047 80.822 81.92 80.822zM790.262 632.32c45.874 0 81.92-36.047 81.92-80.822v-206.995c0-44.775-36.046-80.822-81.92-80.822h-109.814c21.053 14.819 27.894 58.435 27.894 80.822v206.995c0 44.775 36.047 80.822 81.92 80.822zM254.976 539.648c0-15.552-12.608-28.16-28.16-28.16s-28.16 12.608-28.16 28.16c0 15.552 12.608 28.16 28.16 28.16s28.16-12.608 28.16-28.16zM254.976 447.488c0-15.552-12.608-28.16-28.16-28.16s-28.16 12.608-28.16 28.16c0 15.552 12.608 28.16 28.16 28.16s28.16-12.608 28.16-28.16zM254.976 355.328c0-15.552-12.608-28.16-28.16-28.16s-28.16 12.608-28.16 28.16c0 15.552 12.608 28.16 28.16 28.16s28.16-12.608 28.16-28.16zM537.6 406.528c0 15.552-12.608 28.16-28.16 28.16s-28.16-12.608-28.16-28.16c0-15.552 12.608-28.16 28.16-28.16s28.16 12.608 28.16 28.16zM537.6 498.688c0 15.552-12.608 28.16-28.16 28.16s-28.16-12.608-28.16-28.16c0-15.552 12.608-28.16 28.16-28.16s28.16 12.608 28.16 28.16zM537.6 590.848c0 15.552-12.608 28.16-28.16 28.16s-28.16-12.608-28.16-28.16c0-15.552 12.608-28.16 28.16-28.16s28.16 12.608 28.16 28.16zM761.856 539.648c0-15.552 12.608-28.16 28.16-28.16s28.16 12.608 28.16 28.16c0 15.552-12.608 28.16-28.16 28.16s-28.16-12.608-28.16-28.16zM761.856 447.488c0-15.552 12.608-28.16 28.16-28.16s28.16 12.608 28.16 28.16c0 15.552-12.608 28.16-28.16 28.16s-28.16-12.608-28.16-28.16zM761.856 355.328c0-15.552 12.608-28.16 28.16-28.16s28.16 12.608 28.16 28.16c0 15.552-12.608 28.16-28.16 28.16s-28.16-12.608-28.16-28.16z" />
<glyph unicode="&#xe905;" glyph-name="fingerprint" d="M636 0.667h-6c-68 18-112 44-158 90-60 60-92 138-92 222 0 70 58 126 130 126s132-56 132-126c0-46 38-82 88-82s90 36 90 82c0 160-140 292-310 292-122 0-232-68-282-172-16-34-24-76-24-120 0-34 2-86 28-154 9.157-27.471-30.939-36.654-40-14-20 56-32 110-32 168 0 52 10 98 30 138 56 120 182 198 320 198 194 0 352-152 352-336 0-70-60-124-132-124s-130 54-130 124c0 46-40 84-90 84s-88-38-88-84c0-72 28-140 80-192 40-40 80-62 140-78 12-2 16-14 14-26-2-10-12-16-20-16zM530 312.667c0-97.515 80.578-182 192-182 19.928 0 65.546 14.722 70-12 2-12-6-24-18-26-24-4-46-4-52-4-50 0-96 12-132 38-64 44-102 112-102 186 0 12 10 22 22 22s20-10 20-22zM416 8.667c-6 0-10 2-14 6-38 38-58 62-86 114-30 52-46 116-46 184 0 126 108 230 242 230s242-104 242-230c0-12-10-20-22-20s-22 8-22 20c0 104-88 188-198 188s-198-84-198-188c0-62 12-118 38-164 28-50 48-70 80-104 8-8 8-22 0-30-4-4-10-6-16-6zM150 524.667c-17.624 0-27.785 15.691-18 32 42 60 96 108 160 140 134 70 306 70 440 0 64-32 118-78 160-138 6-10 4-24-6-30s-24-4-30 6c-38 54-86 94-144 124-122 62-278 64-400 0-58-30-108-72-146-126-4-6-10-8-16-8zM760 748.667c-4 0-8 0-10 2-82 42-154 60-238 60s-166-20-238-60c-23.381-14.029-43.278 24.033-20 38 80 44 166 64 258 64 90 0 170-20 258-64 18.211-10.927 10.406-40-10-40z" />
<glyph unicode="&#xe907;" glyph-name="pig" d="M789.568 258.912c0 0 106.56 72.896 106.56 216.672 0 214.016-226.816 293.152-348.768 291.040-121.984-2.144-158.336-34.24-158.336-34.24s-41.504 30.176-85.504 55.456c-33.664 13.12-41.472 15.008-64.864 7.488-18.72 0-6.944-31.168 0.576-42.4 7.456-11.232 43.712-73.28 43.712-73.28s-76.096-78.368-81.728-129.888c0 0.928-35.84 0.288-55.488 0.288s-17.792-21.408-17.792-21.408l0.544-150.848c0 0-1.216-21.408 16.608-21.408 17.792 0 55.616-0.416 55.616-0.416s53.216-77.28 86.944-91.328c0-0.928-29.152-80.096-29.152-80.096s-14.048-24.352 11.232-33.728c25.28-9.344 91.232-37.024 119.328-45.472 28.064-8.416 32.096 10.688 32.096 10.688l27.808 60.064 181.92-0.288 27.808-61.92c0 0 5.344-28.736 42.784-12.832 37.472 15.904 78.368 34.784 109.28 50.688 30.88 15.904 10.56 45.632 10.56 45.632l-31.744 61.536zM298.304 519.552c-17.056 0-30.88 13.856-30.88 30.912s13.824 30.88 30.88 30.88 30.912-13.824 30.912-30.88-13.856-30.912-30.912-30.912zM733.6 615.808c-9.856-11.68-16.288-3.072-24.224-0.736 0 0-33.632 31.2-83.040 45.76-51.168 15.040-105.024 7.776-105.024 7.776-7.936 2.336-17.568 2.592-17.632 14.848 0.416 15.136 18.784 15.264 18.56 15.776 0 0 60.608 5.6 111.328-9.312 49.888-14.656 88-46.528 88-46.528s20.384-14.048 12.032-27.584z" />
<glyph unicode="&#xe908;" glyph-name="comment" d="M1024 438.857c0-202.286-229.143-365.714-512-365.714-28 0-56 1.714-82.857 4.571-74.857-66.286-164-113.143-262.857-138.286-20.571-5.714-42.857-9.714-65.143-12.571-12.571-1.143-24.571 8-27.429 21.714v0.571c-2.857 14.286 6.857 22.857 15.429 33.143 36 40.571 77.143 74.857 104 170.286-117.714 66.857-193.143 170.286-193.143 286.286 0 201.714 229.143 365.714 512 365.714s512-163.429 512-365.714z" />
<glyph unicode="&#xe909;" glyph-name="github" horiz-adv-x="878" d="M332.571 203.428c0-30.857-28-37.714-53.143-37.714-24.571 0-61.143 4-61.143 36 0 31.429 30.857 36.571 56 36.571 24 0 58.286-4 58.286-34.857zM312 469.714c0-28.571-11.429-48.571-42.286-48.571-31.429 0-44 18.286-44 48s11.429 51.429 44 51.429c29.143 0 42.286-24 42.286-50.857zM406.857 512.571v71.429c-24.571-9.143-50.857-16.571-77.143-16.571-18.857 10.857-40.571 16.571-62.857 16.571-65.143 0-116.571-48-116.571-114.286 0-35.429 23.429-84.571 58.857-96.571v-1.714c-18.286-8-21.714-30.286-21.714-48.571 0-18.857 6.857-34.286 23.429-44v-1.714c-38.857-12.571-64.571-37.143-64.571-79.429 0-72.571 69.143-93.143 129.714-93.143 73.143 0 128 26.857 128 107.429 0 57.143-52 74.286-99.429 82.857-16 2.857-43.429 14.286-43.429 34.286 0 18.857 10.286 26.857 28 29.714 58.286 11.429 95.429 56.571 95.429 116.571 0 10.286-2.286 20-5.714 29.714 9.143 2.286 18.857 4.571 28 7.429zM440.571 273.143h78.286c-1.143 15.429-1.143 31.429-1.143 46.857v221.143c0 13.143 0 26.286 1.143 39.429h-78.286c1.714-13.143 1.714-27.429 1.714-40.571v-224c0-14.286 0-28.571-1.714-42.857zM731.429 282.286v69.143c-11.429-8-25.143-12-38.857-12-25.714 0-30.286 25.714-30.286 46.857v128.571h29.714c10.286 0 20-1.143 30.286-1.143v66.857h-60c0 19.429-1.143 38.857 1.714 58.286h-80c1.714-10.286 2.286-20.571 2.286-31.429v-26.857h-34.286v-66.857c6.857 0.571 13.714 1.714 21.143 1.714 4 0 8.571-0.571 13.143-0.571v-1.143h-1.143v-124c0-61.714 9.143-121.143 84.571-121.143 21.143 0 42.857 3.429 61.714 13.714zM528 685.714c0 26.857-20 52-48 52s-48.571-24.571-48.571-52c0-26.857 21.143-50.857 48.571-50.857s48 24.571 48 50.857zM877.714 713.143v-548.571c0-90.857-73.714-164.571-164.571-164.571h-548.571c-90.857 0-164.571 73.714-164.571 164.571v548.571c0 90.857 73.714 164.571 164.571 164.571h548.571c90.857 0 164.571-73.714 164.571-164.571z" />
<glyph unicode="&#xe90a;" glyph-name="mail-alt" d="M1024 545.143v-453.714c0-50.286-41.143-91.429-91.429-91.429h-841.143c-50.286 0-91.429 41.143-91.429 91.429v453.714c17.143-18.857 36.571-35.429 57.714-49.714 94.857-64.571 190.857-129.143 284-197.143 48-35.429 107.429-78.857 169.714-78.857h1.143c62.286 0 121.714 43.429 169.714 78.857 93.143 67.429 189.143 132.571 284.571 197.143 20.571 14.286 40 30.857 57.143 49.714zM1024 713.143c0-64-47.429-121.714-97.714-156.571-89.143-61.714-178.857-123.429-267.429-185.714-37.143-25.714-100-78.286-146.286-78.286h-1.143c-46.286 0-109.143 52.571-146.286 78.286-88.571 62.286-178.286 124-266.857 185.714-40.571 27.429-98.286 92-98.286 144 0 56 30.286 104 91.429 104h841.143c49.714 0 91.429-41.143 91.429-91.429z" />
<glyph unicode="&#xe90b;" glyph-name="twitter" horiz-adv-x="951" d="M925.714 717.714c-25.143-36.571-56.571-69.143-92.571-95.429 0.571-8 0.571-16 0.571-24 0-244-185.714-525.143-525.143-525.143-104.571 0-201.714 30.286-283.429 82.857 14.857-1.714 29.143-2.286 44.571-2.286 86.286 0 165.714 29.143 229.143 78.857-81.143 1.714-149.143 54.857-172.571 128 11.429-1.714 22.857-2.857 34.857-2.857 16.571 0 33.143 2.286 48.571 6.286-84.571 17.143-148 91.429-148 181.143v2.286c24.571-13.714 53.143-22.286 83.429-23.429-49.714 33.143-82.286 89.714-82.286 153.714 0 34.286 9.143 65.714 25.143 93.143 90.857-112 227.429-185.143 380.571-193.143-2.857 13.714-4.571 28-4.571 42.286 0 101.714 82.286 184.571 184.571 184.571 53.143 0 101.143-22.286 134.857-58.286 41.714 8 81.714 23.429 117.143 44.571-13.714-42.857-42.857-78.857-81.143-101.714 37.143 4 73.143 14.286 106.286 28.571z" />
<glyph unicode="&#xe910;" glyph-name="rss" horiz-adv-x="805" d="M219.429 182.857c0-60.571-49.143-109.714-109.714-109.714s-109.714 49.143-109.714 109.714 49.143 109.714 109.714 109.714 109.714-49.143 109.714-109.714zM512 112.571c0.571-10.286-2.857-20-9.714-27.429-6.857-8-16.571-12-26.857-12h-77.143c-18.857 0-34.286 14.286-36 33.143-16.571 174.286-154.857 312.571-329.143 329.143-18.857 1.714-33.143 17.143-33.143 36v77.143c0 10.286 4 20 12 26.857 6.286 6.286 15.429 9.714 24.571 9.714h2.857c121.714-9.714 236.571-62.857 322.857-149.714 86.857-86.286 140-201.143 149.714-322.857zM804.571 111.428c0.571-9.714-2.857-19.429-10.286-26.857-6.857-7.429-16-11.429-26.286-11.429h-81.714c-19.429 0-35.429 14.857-36.571 34.286-18.857 332-283.429 596.571-615.429 616-19.429 1.143-34.286 17.143-34.286 36v81.714c0 10.286 4 19.429 11.429 26.286 6.857 6.857 16 10.286 25.143 10.286h1.714c200-10.286 388-94.286 529.714-236.571 142.286-141.714 226.286-329.714 236.571-529.714z" />
<glyph unicode="&#xe9eb;" glyph-name="cool" d="M512-64c282.77 0 512 229.23 512 512s-229.23 512-512 512-512-229.23-512-512 229.23-512 512-512zM512 864c229.75 0 416-186.25 416-416s-186.25-416-416-416-416 186.25-416 416 186.25 416 416 416zM800 704c17.6 0 32-14.4 32-32v-96c0-35.2-28.8-64-64-64h-128c-35.2 0-64 28.8-64 64h-128c0-35.2-28.8-64-64-64h-128c-35.2 0-64 28.8-64 64v96c0 17.6 14.4 32 32 32h192c17.6 0 32-14.4 32-32v-32h128v32c0 17.6 14.4 32 32 32h192zM512 192c93.208 0 174.772 49.818 219.546 124.278l54.88-32.934c-55.966-93.070-157.916-155.344-274.426-155.344-48.458 0-94.384 10.796-135.54 30.082l33.162 55.278c31.354-13.714 65.964-21.36 102.378-21.36z" />
</font></defs></svg>